
/*------------------------------------------------------------------------
    File        : dsconsultasociorecomendado.i
    Purpose     : 

    Syntax      :

    Description : 

    Author(s)   : 
    Created     : Fri Jun 05 20:15:36 CDT 2020
    Notes       :
  ----------------------------------------------------------------------*/

/* ***************************  Definitions  ************************** */
{I/consultasociorecomendado.i}

DEFINE DATASET dsconssociorec SERIALIZE-NAME "request" FOR ttEncdatos, ttSucursal.


/* ********************  Preprocessor Definitions  ******************** */


/* ***************************  Main Block  *************************** */
