
/*------------------------------------------------------------------------
    File        : dsconsultasociorecomendadoconsulta.i
    Purpose     : 

    Syntax      :

    Description : 

    Author(s)   : 
    Created     : Mon Jun 08 11:38:48 CDT 2020
    Notes       :
  ----------------------------------------------------------------------*/

/* ***************************  Definitions  ************************** */
{I/consultasociorecomendadoconsulta.i}

DEFINE DATASET dsconssocioreccons SERIALIZE-NAME "request" FOR ttEncdatos, ttDetalle.

/* ********************  Preprocessor Definitions  ******************** */


/* ***************************  Main Block  *************************** */
