
/*------------------------------------------------------------------------
    File        : dsfichasconhorarioxsuc.i
    Purpose     : 

    Syntax      :

    Description : 

    Author(s)   : 
    Created     : pus hoy xd
    Notes       :
  ----------------------------------------------------------------------*/

/* ***************************  Definitions  ************************** */
{I/fichasconhorarioxsuc.i}

DEFINE DATASET dsfichasconhorarioxsuc SERIALIZE-NAME "request" FOR ttEncdatos, ttDetFicha.


/* ********************  Preprocessor Definitions  ******************** */


/* ***************************  Main Block  *************************** */
